{
    "Transactions": [
        {
            "transType":"PURCHASE",
            "amount":45.07
        },
        {
            "transType":"REFUND",
            "amount":39.43
        },
        {
            "transType":"RE-FUND",
            "amount":334.34
        }
    ]
}