{
    "_id": {
      "$oid": "623332f49c0d72daac1e1fa2"
    },
    "_v": 2,
    "amount": {
      "amount": 250,
      "currency": "USD"
    },
    "client": {
      "id": "5e5444507e1e8e0051e09618",
      "name": "Landa Holdings Inc."
    },
    "extra": {
      "asset": null,
      "created_on": {
        "$date": 1647522548544
      },
      "encrypted_note": "",
      "filename": null,
      "group_id": null,
      "interchange_meta": {
        "soft_descriptor": null
      },
      "ip": "0.0.0.0",
      "latlon": "unknown,unknown",
      "location": {
        "address_city": null,
        "address_country_code": null,
        "address_postal_code": null,
        "address_subdivision": null,
        "lat": 0,
        "lon": 0
      },
      "note": "",
      "other": {
        "affect_limits": true,
        "approved": false,
        "async_ran": true,
        "attachments": [],
        "chargeback_disputed": false,
        "create_email_sent": false,
        "dispute_form": null,
        "dispute_meta": {},
        "dispute_reason": null,
        "disputed": false,
        "do_next": true,
        "is_provisional_credit": false,
        "process": {
          "credit": 3,
          "debit": 0
        },
        "provisional_credit_transaction_id": null,
        "settlement_batch_id": "6233338c9c14b50dff7b50c6",
        "show_queue": false,
        "skip_validation": false
      },
      "process_on": {
        "$date": 1647522548544
      },
      "rate": null,
      "rate_limit": null,
      "same_day": false,
      "settlement_delay": 0,
      "speed": "NEXTDAY",
      "supp_id": null,
      "tracking_number": null,
      "txp_meta": {
        "amount_types": [],
        "amounts": [],
        "payment_code": null,
        "tax_period_end_date": null,
        "taxpayer_verification": null,
        "tin": null
      }
    },
    "fees": [
      {
        "fee": -0.05,
        "note": "Facilitator Fee",
        "to": {
          "id": {
            "$oid": "5fb7ed1198021667d23443c5"
          }
        }
      },
      {
        "fee": 0.05,
        "note": "Synapse Facilitator Fee",
        "to": {
          "id": {
            "$oid": "55b3f8c686c2732b4c4e9df6"
          }
        }
      }
    ],
    "from": {
      "id": {
        "$oid": "62332c8c8e0bbc7393eecc36"
      },
      "nickname": "Bchf Cjfjc's Bank Account",
      "type": "ACH-US",
      "user": {
        "_id": {
          "$oid": "62332a70a1c81c1e099d0623"
        },
        "legal_names": [
          "Bchf Cjfjc"
        ]
      }
    },
    "recent_status": {
      "date": {
        "$date": 1647522763065
      },
      "note": "Next",
      "status": "PROCESSING-CREDIT",
      "status_id": "3"
    },
    "timeline": [
      {
        "date": {
          "$date": 1647522548544
        },
        "note": "Transaction Created.",
        "status": "CREATED",
        "status_id": "1"
      },
      {
        "date": {
          "$date": 1647522700262
        },
        "note": "Next",
        "status": "PROCESSING-DEBIT",
        "status_id": "2"
      },
      {
        "date": {
          "$date": 1647522763065
        },
        "note": "Next",
        "status": "PROCESSING-CREDIT",
        "status_id": "3"
      }
    ],
    "to": {
      "id": {
        "$oid": "62332c828e0bbc7393eecc35"
      },
      "nickname": "Bchf Cjfjc's Custody Account",
      "type": "CUSTODY-US",
      "user": {
        "_id": {
          "$oid": "62332a70a1c81c1e099d0623"
        },
        "legal_names": [
          "Bchf Cjfjc"
        ]
      }
    }
  }
  
